This is BibTeX, Version 0.99d (TeX Live 2019/dev/Debian)
Capacity: max_strings=100000, hash_size=100000, hash_prime=85009
The top-level auxiliary file: report.aux
The style file: jfm.bst
I found no \citation commands---while reading file report.aux
Database file #1: ./biblio.bib
I was expecting a `,' or a `}'---line 4 of file ./biblio.bib
 : @article{Morris 
 :                 W. Hirsch2013,
I'm skipping whatever remains of this entry
I was expecting a `,' or a `}'---line 9 of file ./biblio.bib
 : @article{R. 
 :             Williams1979,
I'm skipping whatever remains of this entry
I was expecting a `,' or a `}'---line 17 of file ./biblio.bib
 : @article{C. 
 :             Sparrow 1982,
I'm skipping whatever remains of this entry
You've used 0 entries,
            2793 wiz_defined-function locations,
            623 strings with 4608 characters,
and the built_in function-call counts, 23 in all, are:
= -- 0
> -- 0
< -- 0
+ -- 0
- -- 0
* -- 2
:= -- 8
add.period$ -- 0
call.type$ -- 0
change.case$ -- 0
chr.to.int$ -- 0
cite$ -- 0
duplicate$ -- 0
empty$ -- 1
format.name$ -- 0
if$ -- 1
int.to.chr$ -- 1
int.to.str$ -- 1
missing$ -- 0
newline$ -- 4
num.names$ -- 0
pop$ -- 0
preamble$ -- 1
purify$ -- 0
quote$ -- 0
skip$ -- 1
stack$ -- 0
substring$ -- 0
swap$ -- 0
text.length$ -- 0
text.prefix$ -- 0
top$ -- 0
type$ -- 0
warning$ -- 0
while$ -- 0
width$ -- 0
write$ -- 3
(There were 4 error messages)
