\relax 
\providecommand\hyper@newdestlabel[2]{}
\providecommand\HyperFirstAtBeginDocument{\AtBeginDocument}
\HyperFirstAtBeginDocument{\ifx\hyper@anchor\@undefined
\global\let\oldcontentsline\contentsline
\gdef\contentsline#1#2#3#4{\oldcontentsline{#1}{#2}{#3}}
\global\let\oldnewlabel\newlabel
\gdef\newlabel#1#2{\newlabelxx{#1}#2}
\gdef\newlabelxx#1#2#3#4#5#6{\oldnewlabel{#1}{{#2}{#3}}}
\AtEndDocument{\ifx\hyper@anchor\@undefined
\let\contentsline\oldcontentsline
\let\newlabel\oldnewlabel
\fi}
\fi}
\global\let\hyper@last\relax 
\gdef\HyperFirstAtBeginDocument#1{#1}
\providecommand\HyField@AuxAddToFields[1]{}
\providecommand\HyField@AuxAddToCoFields[2]{}
\@writefile{toc}{\contentsline {section}{\numberline {1}Introduction}{3}{section.1}\protected@file@percent }
\@writefile{toc}{\contentsline {section}{\numberline {2}Lorenz system}{3}{section.2}\protected@file@percent }
\@writefile{toc}{\contentsline {subsection}{\numberline {2.1}Model definition}{3}{subsection.2.1}\protected@file@percent }
\@writefile{toc}{\contentsline {subsection}{\numberline {2.2}Mathematical formulation}{3}{subsection.2.2}\protected@file@percent }
\newlabel{Lorenz_eq}{{1}{4}{Mathematical formulation}{equation.2.1}{}}
\@writefile{toc}{\contentsline {subsection}{\numberline {2.3}Fixed points}{4}{subsection.2.3}\protected@file@percent }
\@writefile{toc}{\contentsline {subsection}{\numberline {2.4}Numerical simulation}{4}{subsection.2.4}\protected@file@percent }
\@writefile{toc}{\contentsline {subsection}{\numberline {2.5}Results}{5}{subsection.2.5}\protected@file@percent }
\@writefile{lof}{\contentsline {figure}{\numberline {1}{\ignorespaces Lorenz System \relax }}{5}{figure.caption.2}\protected@file@percent }
\providecommand*\caption@xref[2]{\@setref\relax\@undefined{#1}}
\newlabel{Lorenz_XYplot}{{1}{5}{Lorenz System \relax }{figure.caption.2}{}}
\@writefile{toc}{\contentsline {section}{\numberline {3}Predator Prey Model}{5}{section.3}\protected@file@percent }
\@writefile{toc}{\contentsline {subsection}{\numberline {3.1}Model definition}{5}{subsection.3.1}\protected@file@percent }
\@writefile{toc}{\contentsline {subsection}{\numberline {3.2}Mathematical formulation}{6}{subsection.3.2}\protected@file@percent }
\@writefile{toc}{\contentsline {subsection}{\numberline {3.3}Fixed points}{6}{subsection.3.3}\protected@file@percent }
\@writefile{toc}{\contentsline {subsection}{\numberline {3.4}Numerical simulation}{7}{subsection.3.4}\protected@file@percent }
\@writefile{toc}{\contentsline {subsection}{\numberline {3.5}Results}{8}{subsection.3.5}\protected@file@percent }
\@writefile{lof}{\contentsline {figure}{\numberline {2}{\ignorespaces Predator\IeC {\textendash }prey model over time\relax }}{8}{figure.caption.3}\protected@file@percent }
\newlabel{Predaprey_XY_timeplot}{{2}{8}{Predator–prey model over time\relax }{figure.caption.3}{}}
\@writefile{lof}{\contentsline {figure}{\numberline {3}{\ignorespaces Population cycle\relax }}{9}{figure.caption.4}\protected@file@percent }
\newlabel{Predaprey_XY}{{3}{9}{Population cycle\relax }{figure.caption.4}{}}
\@writefile{toc}{\contentsline {section}{\numberline {4}Conclusion}{9}{section.4}\protected@file@percent }
\@writefile{toc}{\contentsline {section}{\numberline {5}Optional topic $ : { $Poiseuille flow$ } $ }{10}{section.5}\protected@file@percent }
\newlabel{volumetric flow}{{12}{10}{Optional topic $ : { $Poiseuille flow$ } $}{equation.5.12}{}}
\@writefile{lof}{\contentsline {figure}{\numberline {4}{\ignorespaces Poiseuille flow geometry\relax }}{11}{figure.caption.5}\protected@file@percent }
\newlabel{PoisF1}{{4}{11}{Poiseuille flow geometry\relax }{figure.caption.5}{}}
\@writefile{lof}{\contentsline {figure}{\numberline {5}{\ignorespaces Axial velocity profile.\relax }}{11}{figure.caption.6}\protected@file@percent }
\newlabel{PoisF2}{{5}{11}{Axial velocity profile.\relax }{figure.caption.6}{}}
\bibstyle{jfm}
\bibdata{./biblio}
\@writefile{toc}{\contentsline {section}{\numberline {6}References}{12}{section.6}\protected@file@percent }
